[aimspice]
[description]
516
*analog to PV cell

I1 0 1 dc 1
d1 1 0 diode1 
rsh1 1 0 100
rs1 1 2 .0001
e1 2 0 20 0 1

I11 0 11 dc 1
d11 11 0 diode2 
rsh11 11 0 100
rs11 11 12 .0001
e11 12 0 20 0 1

I21 0 21 dc 1
d21 21 0 diode3 
rsh21 21 0 100
rs21 21 22 .0001
e21 22 0 20 0 1

I31 0 31 dc 1
d31 31 0 diode4 
rsh31 31 0 100
rs31 31 32 .0001
e31 32 0 20 0 1

* load control voltage
vds 20 0
rds 20 0 

.MODEL diode1 D IS=1e-6 N=1.5
.MODEL diode2 D IS=1e-6 N=1.5
.MODEL diode3 D IS=1e-6 N=1.5
.MODEL diode4 D IS=1e-6 N=1.5
[ac]
0
0
0.001
0.6
[dc]
1
vds
0
1
0.0001
[ana]
1 0
[end]
